module github.com/kumahq/kuma

go 1.21.3

require (
	cirello.io/pglock v1.14.1
	github.com/Masterminds/semver/v3 v3.2.1
	github.com/Masterminds/sprig/v3 v3.2.3
	github.com/Nordix/simple-ipam v1.0.0
	github.com/asaskevich/govalidator v0.0.0-20210307081110-f21760c49a8d
	github.com/cilium/ebpf v0.12.2
	github.com/containernetworking/cni v1.1.2
	github.com/containernetworking/plugins v1.3.0
	github.com/emicklei/go-restful/v3 v3.11.0
	github.com/envoyproxy/go-control-plane v0.11.1
	github.com/envoyproxy/protoc-gen-validate v1.0.2
	github.com/evanphx/json-patch/v5 v5.7.0
	github.com/exaring/otelpgx v0.5.2
	github.com/go-logr/logr v1.3.0
	github.com/go-logr/zapr v1.3.0
	github.com/goburrow/cache v0.1.4
	github.com/golang-jwt/jwt/v4 v4.5.0
	github.com/golang-migrate/migrate/v4 v4.16.2
	github.com/golang/protobuf v1.5.3
	github.com/google/go-cmp v0.6.0
	github.com/google/uuid v1.4.0
	github.com/grpc-ecosystem/go-grpc-prometheus v1.2.0
	github.com/gruntwork-io/terratest v0.46.5
	github.com/hashicorp/go-multierror v1.1.1
	github.com/hoisie/mustache v0.0.0-20160804235033-6375acf62c69
	github.com/jackc/pgx/v5 v5.5.0
	github.com/kelseyhightower/envconfig v1.4.0
	github.com/kennygrant/sanitize v1.2.4
	github.com/kumahq/protoc-gen-kumadoc v0.3.1
	github.com/lib/pq v1.10.9
	github.com/miekg/dns v1.1.56
	github.com/moby/sys/mountinfo v0.7.0
	github.com/natefinch/atomic v1.0.1
	github.com/onsi/ginkgo/v2 v2.13.0
	github.com/onsi/gomega v1.29.0
	github.com/patrickmn/go-cache v2.1.0+incompatible
	github.com/pkg/errors v0.9.1
	github.com/prometheus/client_golang v1.17.0
	github.com/prometheus/client_model v0.5.0
	github.com/prometheus/common v0.45.0
	github.com/sethvargo/go-retry v0.2.4
	github.com/shopspring/decimal v1.3.1
	github.com/slok/go-http-metrics v0.11.0
	github.com/soheilhy/cmux v0.1.5
	github.com/spf13/cobra v1.8.0
	github.com/spiffe/go-spiffe/v2 v2.1.6
	github.com/testcontainers/testcontainers-go v0.26.0
	github.com/tonglil/opentelemetry-go-datadog-propagator v0.1.1
	github.com/vishvananda/netlink v1.2.1-beta.2
	github.com/vishvananda/netns v0.0.4
	go.opentelemetry.io/contrib/instrumentation/github.com/emicklei/go-restful/otelrestful v0.45.0
	go.opentelemetry.io/contrib/instrumentation/google.golang.org/grpc/otelgrpc v0.45.0
	go.opentelemetry.io/otel v1.19.0
	go.opentelemetry.io/otel/exporters/otlp/otlptrace/otlptracegrpc v1.19.0
	go.opentelemetry.io/otel/sdk v1.19.0
	go.opentelemetry.io/otel/trace v1.19.0
	go.opentelemetry.io/proto/otlp v1.0.0
	go.uber.org/multierr v1.11.0
	go.uber.org/zap v1.26.0
	golang.org/x/exp v0.0.0-20231006140011-7918f672742d
	golang.org/x/net v0.17.0
	golang.org/x/sys v0.13.0
	golang.org/x/text v0.14.0
	golang.org/x/time v0.3.0 // indirect
	gonum.org/v1/gonum v0.14.0
	google.golang.org/genproto/googleapis/api v0.0.0-20230913181813-007df8e322eb
	google.golang.org/genproto/googleapis/rpc v0.0.0-20230920204549-e6e6cdab5c13
	google.golang.org/grpc v1.59.0
	google.golang.org/protobuf v1.31.0
	gopkg.in/natefinch/lumberjack.v2 v2.2.1
	helm.sh/helm/v3 v3.13.1
	k8s.io/api v0.28.3
	k8s.io/apiextensions-apiserver v0.28.3
	k8s.io/apimachinery v0.28.3
	k8s.io/client-go v0.28.3
	k8s.io/klog/v2 v2.110.1
	k8s.io/kube-openapi v0.0.0-20231010175941-2dd684a91f00
	k8s.io/kubectl v0.28.3
	k8s.io/utils v0.0.0-20230726121419-3b25d923346b
	sigs.k8s.io/controller-runtime v0.16.3
	sigs.k8s.io/controller-tools v0.13.0
	// When updating this also update version in: test/framework/k8s.go
	sigs.k8s.io/gateway-api v1.0.1-0.20231102153103-51c32c3e070a
	sigs.k8s.io/yaml v1.4.0
)

require (
	dario.cat/mergo v1.0.0 // indirect
	github.com/Azure/go-ansiterm v0.0.0-20230124172434-306776ec8161 // indirect
	github.com/BurntSushi/toml v1.3.2 // indirect
	github.com/Masterminds/goutils v1.1.1 // indirect
	github.com/Microsoft/go-winio v0.6.1 // indirect
	github.com/Microsoft/hcsshim v0.11.1 // indirect
	github.com/aws/aws-sdk-go v1.44.187 // indirect
	github.com/beorn7/perks v1.0.1 // indirect
	github.com/boombuler/barcode v1.0.1 // indirect
	github.com/cenkalti/backoff/v4 v4.2.1 // indirect
	github.com/census-instrumentation/opencensus-proto v0.4.1 // indirect
	github.com/cespare/xxhash/v2 v2.2.0 // indirect
	github.com/cncf/xds/go v0.0.0-20230607035331-e9ce68804cb4 // indirect
	github.com/containerd/containerd v1.7.7 // indirect
	github.com/containerd/log v0.1.0 // indirect
	github.com/cpuguy83/dockercfg v0.3.1 // indirect
	github.com/cpuguy83/go-md2man/v2 v2.0.3 // indirect
	github.com/cyphar/filepath-securejoin v0.2.4 // indirect
	github.com/davecgh/go-spew v1.1.2-0.20180830191138-d8f796af33cc // indirect
	github.com/docker/distribution v2.8.2+incompatible // indirect
	github.com/docker/docker v24.0.7+incompatible // indirect
	github.com/docker/go-connections v0.4.0 // indirect
	github.com/docker/go-units v0.5.0 // indirect
	github.com/evanphx/json-patch v5.7.0+incompatible // indirect
	github.com/fatih/color v1.15.0 // indirect
	github.com/fsnotify/fsnotify v1.7.0 // indirect
	github.com/ghodss/yaml v1.0.0 // indirect
	github.com/go-errors/errors v1.4.2 // indirect
	github.com/go-logr/stdr v1.2.2 // indirect
	github.com/go-ole/go-ole v1.2.6 // indirect
	github.com/go-openapi/jsonpointer v0.20.0 // indirect
	github.com/go-openapi/jsonreference v0.20.2 // indirect
	github.com/go-openapi/swag v0.22.4 // indirect
	github.com/go-sql-driver/mysql v1.6.0 // indirect
	github.com/go-task/slim-sprig v0.0.0-20230315185526-52ccab3ef572 // indirect
	github.com/gobuffalo/flect v1.0.2 // indirect
	github.com/gobwas/glob v0.2.3 // indirect
	github.com/gogo/protobuf v1.3.2 // indirect
	github.com/golang/groupcache v0.0.0-20210331224755-41bb18bfe9da // indirect
	github.com/google/gnostic-models v0.6.8 // indirect
	github.com/google/gofuzz v1.2.0 // indirect
	github.com/google/pprof v0.0.0-20230323073829-e72429f035bd // indirect
	github.com/grpc-ecosystem/grpc-gateway/v2 v2.16.0 // indirect
	github.com/gruntwork-io/go-commons v0.8.0 // indirect
	github.com/hashicorp/errwrap v1.1.0 // indirect
	github.com/huandu/xstrings v1.4.0 // indirect
	github.com/imdario/mergo v0.3.16 // indirect
	github.com/inconshreveable/mousetrap v1.1.0 // indirect
	github.com/jackc/pgpassfile v1.0.0 // indirect
	github.com/jackc/pgservicefile v0.0.0-20221227161230-091c0ba34f0a // indirect
	github.com/jackc/puddle/v2 v2.2.1 // indirect
	github.com/jmespath/go-jmespath v0.4.0 // indirect
	github.com/josharian/intern v1.0.0 // indirect
	github.com/jpillora/backoff v1.0.0 // indirect
	github.com/json-iterator/go v1.1.12 // indirect
	github.com/klauspost/compress v1.17.1 // indirect
	github.com/lufia/plan9stats v0.0.0-20211012122336-39d0f177ccd0 // indirect
	github.com/magiconair/properties v1.8.7 // indirect
	github.com/mailru/easyjson v0.7.7 // indirect
	github.com/mattn/go-colorable v0.1.13 // indirect
	github.com/mattn/go-isatty v0.0.20 // indirect
	github.com/mattn/go-zglob v0.0.2-0.20190814121620-e3c945676326 // indirect
	github.com/matttproud/golang_protobuf_extensions/v2 v2.0.0 // indirect
	github.com/mitchellh/copystructure v1.2.0 // indirect
	github.com/mitchellh/go-homedir v1.1.0 // indirect
	github.com/mitchellh/reflectwalk v1.0.2 // indirect
	github.com/moby/patternmatcher v0.6.0 // indirect
	github.com/moby/spdystream v0.2.0 // indirect
	github.com/moby/sys/sequential v0.5.0 // indirect
	github.com/moby/term v0.5.0 // indirect
	github.com/modern-go/concurrent v0.0.0-20180306012644-bacd9c7ef1dd // indirect
	github.com/modern-go/reflect2 v1.0.2 // indirect
	github.com/morikuni/aec v1.0.0 // indirect
	github.com/munnerz/goautoneg v0.0.0-20191010083416-a7dc8b61c822 // indirect
	github.com/mwitkow/go-conntrack v0.0.0-20190716064945-2f068394615f // indirect
	github.com/opencontainers/go-digest v1.0.0 // indirect
	github.com/opencontainers/image-spec v1.1.0-rc5 // indirect
	github.com/opencontainers/runc v1.1.8 // indirect
	github.com/pmezard/go-difflib v1.0.1-0.20181226105442-5d4384ee4fb2 // indirect
	github.com/power-devops/perfstat v0.0.0-20210106213030-5aafc221ea8c // indirect
	github.com/pquerna/otp v1.2.0 // indirect
	github.com/prometheus/procfs v0.12.0 // indirect
	github.com/russross/blackfriday/v2 v2.1.0 // indirect
	github.com/shirou/gopsutil/v3 v3.23.9 // indirect
	github.com/shoenig/go-m1cpu v0.1.6 // indirect
	github.com/sirupsen/logrus v1.9.3 // indirect
	github.com/spf13/cast v1.5.1 // indirect
	github.com/spf13/pflag v1.0.5 // indirect
	github.com/stretchr/testify v1.8.4 // indirect
	github.com/tklauser/go-sysconf v0.3.12 // indirect
	github.com/tklauser/numcpus v0.6.1 // indirect
	github.com/urfave/cli v1.22.12 // indirect
	github.com/xeipuuv/gojsonpointer v0.0.0-20190905194746-02993c407bfb // indirect
	github.com/xeipuuv/gojsonreference v0.0.0-20180127040603-bd5ef7bd5415 // indirect
	github.com/xeipuuv/gojsonschema v1.2.0 // indirect
	github.com/yusufpapurcu/wmi v1.2.3 // indirect
	go.opentelemetry.io/otel/exporters/otlp/otlptrace v1.19.0 // indirect
	go.opentelemetry.io/otel/metric v1.19.0 // indirect
	go.uber.org/atomic v1.10.0 // indirect
	golang.org/x/crypto v0.14.0 // indirect
	golang.org/x/mod v0.13.0 // indirect
	golang.org/x/oauth2 v0.13.0 // indirect
	golang.org/x/sync v0.4.0 // indirect
	golang.org/x/term v0.13.0 // indirect
	golang.org/x/tools v0.14.0 // indirect
	gomodules.xyz/jsonpatch/v2 v2.4.0 // indirect
	google.golang.org/appengine v1.6.8 // indirect
	google.golang.org/genproto v0.0.0-20230913181813-007df8e322eb // indirect
	gopkg.in/inf.v0 v0.9.1 // indirect
	gopkg.in/yaml.v2 v2.4.0 // indirect
	gopkg.in/yaml.v3 v3.0.1 // indirect
	gotest.tools/v3 v3.5.0 // indirect
	k8s.io/component-base v0.28.3 // indirect
	sigs.k8s.io/json v0.0.0-20221116044647-bc3834ca7abd // indirect
	sigs.k8s.io/structured-merge-diff/v4 v4.3.0 // indirect
)
